# Name,   Type, SubType, Offset,  Size, Flags
# Note: if you have increased the bootloader size, make sure to update the offsets to avoid overlap
nvs,      data, nvs,     ,        0x10000,
phy_init, data, phy,     ,        0x1000,
factory,  app,  factory, ,        3M,


